[gd_scene load_steps=6 format=2]

[ext_resource path="res://core/pimnet/pimnet.gd" type="Script" id=1]
[ext_resource path="res://core/level/task_window/task_window.tscn" type="PackedScene" id=2]
[ext_resource path="res://core/base_ui/window/window.tscn" type="PackedScene" id=3]
[ext_resource path="res://content/basic_addition/pims/counting_board/counting_board_pim.tscn" type="PackedScene" id=4]
[ext_resource path="res://content/basic_addition/levels/basic_addition_1/pim_setup.tres" type="Resource" id=5]

[node name="LevelScreen" type="Control"]
script = ExtResource( 1 )

[node name="CountingBoardWindow" parent="." instance=ExtResource( 3 )]
position = Vector2( 313.596, 21.3816 )
_hide_bar = true

[node name="WindowRect" parent="CountingBoardWindow" index="0"]
margin_right = 727.0
margin_bottom = 629.0

[node name="ContentContainer" parent="CountingBoardWindow/WindowRect/ContentPanel" index="0"]
margin_right = 720.0
margin_bottom = 592.0

[node name="CountingBoardPim" parent="CountingBoardWindow/WindowRect/ContentPanel/ContentContainer" index="0" instance=ExtResource( 4 )]
margin_right = 713.0
margin_bottom = 585.0
__meta__ = {
"_edit_pinned_properties_": [ "_setup_data" ]
}
_setup_data = ExtResource( 5 )

[node name="TaskWindow" parent="." instance=ExtResource( 2 )]
position = Vector2( 16.0361, 60.581 )
_hide_bar = true

[node name="WindowRect" parent="TaskWindow" index="0"]
margin_right = 290.0
margin_bottom = 615.0

[node name="ContentContainer" parent="TaskWindow/WindowRect/ContentPanel" index="0"]
margin_right = 283.0
margin_bottom = 578.0

[node name="TaskProgressor" parent="TaskWindow/WindowRect/ContentPanel/ContentContainer" index="0"]
margin_right = 276.0
margin_bottom = 571.0

[editable path="CountingBoardWindow"]
[editable path="TaskWindow"]
