[gd_scene load_steps=3 format=2]

[ext_resource path="res://content/basic_addition/levels/basic_addition_6/taskmap_data.gd" type="Script" id=1]
[ext_resource path="res://content/basic_addition/levels/basic_addition_6/level.tscn" type="PackedScene" id=2]

[node name="Level" instance=ExtResource( 2 )]

[node name="TaskControl" parent="." index="3"]
_taskmap_data = ExtResource( 1 )

[node name="MetanavigControl" parent="." index="5"]
active = true

[node name="LevelProgram" parent="." index="7"]
__meta__ = {
"_edit_pinned_properties_": [ "_random_addend", "_random_start_number", "addend", "start_number" ]
}
start_number = 4
addend = 23
_random_start_number = false
_random_addend = false
