[gd_scene load_steps=3 format=2]

[ext_resource path="res://core/effect_system/screen_effect.tscn" type="PackedScene" id=1]
[ext_resource path="res://core/effect_system/effects/navig/effects/cross_wrong.png" type="Texture" id=2]

[node name="WarningEffect" instance=ExtResource( 1 )]

[node name="Graphic" parent="." index="0"]
modulate = Color( 1, 1, 1, 0 )
scale = Vector2( 0.3, 0.3 )

[node name="Sprite" type="Sprite" parent="Graphic" index="0"]
texture = ExtResource( 2 )

[node name="AnimationPlayer" parent="." index="1"]
autoplay = "popup_fade_in_anim"
