[gd_scene load_steps=3 format=2]

[ext_resource path="res://core/pimnet/pim/side_menu/panels/spawn_panel/spawn_panel.tscn" type="PackedScene" id=1]
[ext_resource path="res://content/basic_addition/pims/counting_board/spawners/counter_spawner.tscn" type="PackedScene" id=2]

[node name="ObjectGeneratorPanel" instance=ExtResource( 1 )]

[node name="VBoxContainer" type="VBoxContainer" parent="PanelContainer" index="0"]
margin_left = 7.0
margin_top = 7.0
margin_right = 1273.0
margin_bottom = 107.0

[node name="Control" type="CenterContainer" parent="PanelContainer/VBoxContainer" index="0"]
margin_right = 1266.0
margin_bottom = 100.0
rect_min_size = Vector2( 0, 100 )
mouse_filter = 1

[node name="Control" type="Control" parent="PanelContainer/VBoxContainer/Control" index="0"]
margin_left = 633.0
margin_top = 50.0
margin_right = 633.0
margin_bottom = 50.0
mouse_filter = 1

[node name="ObjectSpawner" parent="PanelContainer/VBoxContainer/Control/Control" index="0" instance=ExtResource( 2 )]

[node name="MainContainer" parent="PanelContainer" index="1"]
margin_bottom = 107.0
