[gd_resource type="Resource" load_steps=3 format=2]

[ext_resource path="res://core/level_resource.gd" type="Script" id=1]
[ext_resource path="res://content/basic_addition/levels/basic_addition_2/levels/level_1.tscn" type="PackedScene" id=2]

[resource]
script = ExtResource( 1 )
name = "2.1"
_name_text = "Addition 2"
_scene = ExtResource( 2 )
