[gd_scene load_steps=3 format=2]

[ext_resource path="res://core/level_loader.gd" type="Script" id=1]
[ext_resource path="res://core/game.gd" type="Script" id=2]

[node name="Game" type="Node"]
script = ExtResource( 2 )

[node name="LevelLoader" type="Node" parent="."]
script = ExtResource( 1 )
