[gd_resource type="Animation" format=2]

[resource]
resource_name = "popup_grow_anim"
tracks/0/type = "value"
tracks/0/path = NodePath(".:scale")
tracks/0/interp = 1
tracks/0/loop_wrap = true
tracks/0/imported = false
tracks/0/enabled = true
tracks/0/keys = {
"times": PoolRealArray( 0, 0.6 ),
"transitions": PoolRealArray( 0.378929, 1 ),
"update": 0,
"values": [ Vector2( 0, 0 ), Vector2( 1, 1 ) ]
}
