[gd_scene load_steps=2 format=2]

[ext_resource path="res://content/basic_addition/levels/basic_addition_5/level.tscn" type="PackedScene" id=1]

[node name="Level" instance=ExtResource( 1 )]

[node name="LevelProgram" parent="." index="5"]
__meta__ = {
"_edit_pinned_properties_": [ "start_number", "addend", "_random_start_number", "_random_addend" ]
}
start_number = 19
addend = 20
_random_start_number = false
_random_addend = false
