[gd_resource type="Resource" load_steps=3 format=2]

[ext_resource path="res://core/level_resource.gd" type="Script" id=1]
[ext_resource path="res://content/basic_fractions/levels/cut_pie_into_equal_pieces/levels/level_2.tscn" type="PackedScene" id=2]

[resource]
script = ExtResource( 1 )
name = "2.2"
_name_text = "Cut Equally Random"
_scene = ExtResource( 2 )
