[gd_scene load_steps=2 format=2]

[ext_resource path="res://content/basic_fractions/levels/cut_pie_into_equal_pieces/level.tscn" type="PackedScene" id=1]

[node name="Level" instance=ExtResource( 1 )]

[node name="LevelProgram" parent="." index="4"]
__meta__ = {
"_edit_pinned_properties_": [ "_max_slices", "_min_slices", "_random" ]
}
_random = true
_min_slices = 2
_max_slices = 10
